
rahen_corrupt_court = {
	potential = {
		always = no #Disabling the event temporarily
		has_reform = raja_reform
		NOT = { has_country_flag = rahen_corrupt_court_completed }
	}

	
	
	can_start = {
		capital_scope = {
			OR = {
				has_province_modifier = rahen_corrupt_ministers
				has_province_modifier = rahen_powerful_nobility
				has_province_modifier = rahen_arrogant_foreign_office
				has_province_modifier = rahen_disloyal_officers
			}
		}
	}
	
	
	can_stop = {
        always = no
	}
	
	
	
	progress = {
		modifier = {
			factor = 3
			capital_scope = { has_province_modifier = rahen_corrupt_ministers }
		}
		modifier = {
			factor = 3
			capital_scope = { has_province_modifier = rahen_powerful_nobility }
		}
		modifier = {
			factor = 3
			capital_scope = { has_province_modifier = rahen_arrogant_foreign_office }
		}
		modifier = {
			factor = 3
			capital_scope = { has_province_modifier = rahen_disloyal_officers }
		}
	}
	
	
	
	can_end = {
		OR = {
			AND = {
				capital_scope = {
					NOT = {
						has_province_modifier = rahen_corrupt_ministers
						has_province_modifier = rahen_powerful_nobility
						has_province_modifier = rahen_arrogant_foreign_office
						has_province_modifier = rahen_disloyal_officers
					}
				}
				if = { 
					limit = { ai = no }
					NOT = { corruption = 1 }
				}
			}
			NOT = { has_reform = raja_reform }
		}
	}
	

	modifier = {
		legitimacy = -1
		yearly_corruption = 0.4
		vassal_income = -0.1
		administrative_efficiency = -0.1
		global_manpower_modifier = -0.2
		diplomatic_annexation_cost = 0.5
		diplomatic_reputation = -1
		reduced_liberty_desire = -5
		all_power_cost = 0.05
		advisor_cost = 0.1
	}
	
	
	on_start = rahenraj.98
	on_end = rahenraj.99
	
	on_monthly = {
		events = {
		}
		random_events = {
			1650 = 0
			80 = rahenraj.100
			50 = rahenraj.101
			50 = rahenraj.102
			50 = rahenraj.103
			50 = rahenraj.104
			50 = rahenraj.105
			10 = rahenraj.106
			
			100 = rahenraj.107
			
			200 = rahenraj.46
			
			50 = rahenraj.200
			200 = rahenraj.201
		}
	}
}

