
country_decisions = {

	restore_phoenix_empire = {
		major = yes
		potential = {
			primary_culture = sun_elf
			ruler_culture = sun_elf
			religion = bulwari_sun_cult
			normal_or_historical_nations = yes
			was_never_end_game_tag_trigger = yes
			NOT = { has_country_flag = restored_phoenix_empire_flag }
			OR = {
				ai = no
				is_playing_custom_nation = no
			}
			NOT = { tag = F38 }
			NOT = { exists = F38 }
		}
		provinces_to_highlight = {
			superregion = bulwar_superregion
			NOT = { country_or_non_sovereign_subject_holds = ROOT }
			NOT = {
				calc_true_if = { 
					amount = 100
					bulwar_superregion = {
						type = all
						country_or_non_sovereign_subject_holds = ROOT
					}
				}
			}
		}
		
		allow = {
			is_at_war = no
			is_free_or_tributary_trigger = yes
			is_nomad = no
			is_incident_active = no
			if = {
				limit = {
					any_subject_country = {
						capital_scope = { superregion = bulwar_superregion }
						NOT = { liberty_desire = 50 }
					}
				}
				dip_power = 300
			}
			num_of_provinces_owned_or_owned_by_non_sovereign_subjects_with = {
				value = 100
				superregion = bulwar_superregion
			}
		}
		
		effect = {
			change_tag = F38
			custom_tooltip = missions_will_expand_tt
			hidden_effect = {
				swap_non_generic_missions = yes
				restore_country_name = yes
				set_variable = { which = totalVassalDev value = 0 }
				every_subject_country = {
					limit = {
						capital_scope = { superregion = bulwar_superregion }
						NOT = { liberty_desire = 50 }
					}
					ROOT = {
						export_to_variable = { which = tempVassalDev value = total_development who = PREV }
						change_variable = { which = totalVassalDev which = tempVassalDev }
					}
				}
				while = { limit = { check_variable = { which = totalVassalDev value = 1 } }
					add_dip_power = -2
					change_variable = { which = totalVassalDev value = -1 }
				}
			}
			every_subject_country = {
				limit = {
					capital_scope = { superregion = bulwar_superregion }
					NOT = { liberty_desire = 50 }
				}
				ROOT = { inherit = PREV }
			}
			custom_tooltip = integrating_vassals_cost_2_dip_tt
			hidden_effect = {
				every_owned_province = {
					limit = {
						is_part_of_hre = yes
					}
					set_in_empire = no
				}
			}
			set_government_rank = 3
			add_prestige = 50
			#if = {
			#	limit = {
			#		is_part_of_hre = yes
			#		is_elector = no
			#	}
			#	every_owned_province = {
			#		limit = {
			#			is_part_of_hre = yes
			#		}
			#		set_in_empire = no
			#	}
			#}
			if = {
				limit = { has_custom_ideas = no }
				country_event = { id = ideagroups.1 } #Swap Ideas
			}
			bulwar_superregion = {
				limit = {
					NOT = { is_core = ROOT }
					NOT = { owned_by = ROOT }
				}
				add_permanent_claim = ROOT
			}
			add_country_modifier = {
				name = "centralization_modifier"
				duration = 7300
			}
			set_country_flag = restored_phoenix_empire_flag
			if = {
				limit = { NOT = { primary_culture = sun_elf } }
				change_primary_culture = sun_elf
				hidden_effect = {
					country_event = { id = racial_modifiers.5 }	#Racial Admin and Military - on primary culture change
				}
			}
			hidden_effect = {
				set_variable = { which = phoenix_empire_timed_missions_completed value = 0 }
				capital_scope = {
					add_province_triggered_modifier = phoenix_empire_timer
				}
			}
			
			lock_racial_admin = yes
		}
		ai_will_do = {
			factor = 1
		}
	}
	
}
