namespace = aw_spawner

#The Adventurers Wanted uses a strict ID system to make the system easier to author content for
#The IDs below 100 are core utility systems that are usually straight copies or modifications of how the AW system works, such as monsters being able to migrate and be defeated by adventurers.
#The IDs above 100 are more unique situations for the specific encounter, but they should correlate with the numbers from above: if ID 10s deal with migration, then ID 110s should be the unique events to do with migration - for example bribing a Thieves Guild to GTFO your country
#Crazy and more uniques ones that dont conform to the utilities should be ID 200

#USE THE anb_aw_spawner TO SEE A SIMPLE COPY-PASTABLE FORMAT IN ADDITION TO STUFF LIKE MIGRATION STYLES ETC
#Search for CHANGEABLE for the criteria you should change in that file and this one

#################################################################
# Welcome to the master file for the Adventurers Wanted System. In the comments below you'll see copy-pastable events for you to choose, different migration styles as well as prebuilt events to handle stuff like spawning rebellions
#################################################################

#0 - spawn in province
country_event = {
    id = aw_spawner.0
    title = aw_spawner.0.t
    desc = aw_spawner.0.d
    picture = COMET_SIGHTED_eventPicture
    
    is_triggered_only = yes
    hidden = yes

    trigger = {
        NOT = { has_country_modifier = monstrous_nation }
        has_estate = estate_adventurers
    }

    immediate = {
        random_owned_province = {
            limit = {
                is_city = yes
            }
            save_event_target_as = aw_spawn_target
        }
    }
    
    option = {
        goto = aw_spawn_target
        event_target:aw_spawn_target = {
            random_list = {
                100 = {  #For now, not sure whether to handle not spawning stuff here or in on_actions as a random_event
					modifier = {
						factor = 1.2
						
						owner = { has_estate_privilege = estate_adventurers_in_her_acolytes_service }						#BD stuff
					}

                }

                #Thieves Guild. Cities and High Dev only
                5 = {
                    #Preventers
                    modifier = {
                        factor = 0
                        OR = {
                            has_province_modifier = aw_thieves_guild_1
                            has_province_modifier = aw_thieves_guild_2
                            has_province_modifier = aw_thieves_guild_3
                        }
                    }
                    modifier = {
                        factor = 0
                        NOT = { development = 20 }
                    }

                    #Factors
                    modifier = {    #Terrain Type
                        factor = 2
                        has_terrain = city_terrain
                    }
                    modifier = {
                        factor = 1.5
                        development = 20
                    }
                    modifier = {
                        factor = 1.25
                        development = 30
                    }
                    modifier = {
                        factor = 2
                        owner = { NOT = { stability = 1 } }
                    }
                    province_event = { id = aw_thieves_guild.0 }
                }

                #Bandits. Ideally in woodlands
                7 = {
                    #Preventers
                    modifier = {
                        factor = 0
                        OR = {
                            has_province_modifier = aw_bandits_1
                            has_province_modifier = aw_bandits_2
                            has_province_modifier = aw_bandits_3
                        }
                    }
                    modifier = {
                        factor = 0
                        has_terrain = city_terrain  #bandits cannot spawn in cities
                    }

                    #Factors
                    modifier = {    #Terrain Type
                        factor = 2
                        OR = {
                            has_terrain = forest
                            has_terrain = hills
                        }
                    }
                    modifier = {
                        factor = 1.25
                        devastation = 10
                    }
                    modifier = {
                        factor = 1.25
                        devastation = 30
                    }
                    modifier = {
                        factor = 1.25
                        devastation = 60
                    }
                    modifier = {
                        factor = 2
                        owner = { NOT = { stability = 1 } }
                    }
                    province_event = { id = aw_bandits.0 }
                }

                #Werewolves. Mostly in the Greatwoods, else in woodlands and hills
                2 = {
                    #Preventers
                    modifier = {
                        factor = 0
                        OR = {
                            has_province_modifier = aw_werewolves_1
                            has_province_modifier = aw_werewolves_2
                            has_province_modifier = aw_werewolves_3
                        }
                    }
                    modifier = {
                        factor = 0  #only terrains it can spawn in
                        NOT = { has_terrain = forest }
                        NOT = { has_terrain = hills }
                        NOT = { has_terrain = ancient_forest }
                        NOT = { has_terrain = farmlands }
                    }
                    modifier = {
                        factor = 0  #only places it can spawn in
                        NOT = { continent = europe }
                    }
                    #Factors
                    modifier = {
                        factor = 2
                        has_terrain = woods
                    }
                    modifier = {    #Terrain Type
                        factor = 3
                        OR = {
                            has_terrain = forest
                            has_terrain = hills
                        }
                    }
                    modifier = {
                        factor = 0.5 
                        has_terrain = farmlands #just smaller chance here
                    }
                    modifier = {
                        factor = 5
                        province_group = greatwoods_province_group  #greatwoods is known for its werewolves
                    }
                    province_event = { id = aw_werewolves.0 }
                }

                #Trolls
                1 = {
                    #Preventers
                    modifier = {
                        factor = 0
                        OR = {
                            has_province_modifier = aw_trolls_1
                            has_province_modifier = aw_trolls_2
                            has_province_modifier = aw_trolls_3

                            has_any_troll_pop_trigger = yes
                        }
                    }
                    modifier = {    #Same race as country preventers
                        factor = 0 
                        owner = { ruler_is_troll = yes }
                    }
                    modifier = {
                        factor = 0 
                        owner = { has_troll_accepted_culture = yes }
                    }
                    modifier = {
                        factor = 0 
                        owner = { medium_tolerance_troll_race_trigger = yes }
                    }
                    modifier = {
                        factor = 0 
                        has_terrain = city_terrain
                    }
                    modifier = {
                        factor = 0 
                        NOT = { continent = europe }
                    }
                    modifier = {
                        factor = 0 
                        devastation = 25 #will not go to a place thats already fucked
                    }
                    #Factors
                    modifier = {
                        factor = 5
                        superregion = gerudia_superregion  #racial homeland
                    }
                    
                    province_event = { id = aw_trolls.0 }
                }

                #Haunted House
                1 = {
                    #Preventers
                    modifier = {
                        factor = 0
                        OR = {
                            has_province_modifier = aw_haunted_house_1
                            has_province_modifier = aw_haunted_house_2
                            has_province_modifier = aw_haunted_house_3
                        }
                    }
                    modifier = {
                        factor = 0  #terrains it CANNOT spawn in
                        OR = {
                            has_terrain = glacier
                            has_terrain = jungle
                            has_terrain = dwarven_road
                            has_terrain = cavern
                            has_terrain = mushroom_forest_terrain
                        }
                    }

                    #Factors
                    modifier = {    #official spooky places
                        factor = 3
                        OR = {
                            region = the_borders_region
                            region = dostanor_region
                            region = forlorn_vale_region
                        }
                    }
                    modifier = {    #decently developed places are favoured
                        factor = 1.5
                        development = 15    
                    }
                    modifier = {
                        factor = 1.5
                        owner = { NOT = { stability = -2 }  }
                    }
                    province_event = { id = aw_haunted_house.0 }
                }

                #Goblins
                3 = {
                    #Preventers
                    modifier = {
                        factor = 0
                        OR = {
                            has_province_modifier = aw_goblins_1
                            has_province_modifier = aw_goblins_2
                            has_province_modifier = aw_goblins_3

                            has_any_goblin_pop_trigger = yes
                        }
                    }
                    modifier = {
                        factor = 0
                        NOT = {
                            OR = {
                                continent = north_america  #no gobos in aelantir
                                continent = south_america  #no gobos in aelantir
                                continent = africa #no goblins in Sarhal, ever
                            }
                        }
                    }
                    modifier = {
                        factor = 0
                        NOT = { superregion = escann_superregion }
                        NOT = { superregion = western_cannor_superregion }
                        NOT = { superregion = deepwoods_superregion }
                        NOT = { superregion = west_serpentspine_superregion }
                        NOT = { superregion = bulwar_superregion }
                        NOT = { superregion = east_serpentspine_superregion }
                    }
                    modifier = {    #Same race as country preventers
                        factor = 0 
                        owner = { ruler_is_goblin = yes }
                    }
                    modifier = {
                        factor = 0 
                        owner = { has_goblin_accepted_culture = yes }
                    }
                    modifier = {
                        factor = 0 
                        owner = { medium_tolerance_goblin_race_trigger = yes }
                    }
                    #Factors
                    modifier = {
                        factor = 5
                        OR = {
                            superregion = escann_superregion  #due to greentide
                            superregion = deepwoods_superregion  #due to greentide
                            continent = serpentspine  #racial homeland
                        }
                    }
                    modifier = {
                        factor = 2
                        OR = {
                            superregion = rahen_superregion #due to serpentspine proximity
                            superregion = bulwar_superregion  #due to serpentspine proximity
                            superregion = forbidden_lands_superregion  #due to serpentspine proximity
                        }
                    }
                    
                    province_event = { id = aw_goblins.0 }
                }

                #Ghouls
                3 = {
                    #Preventers
                    modifier = {
                        factor = 0
                        OR = {
                            has_province_modifier = aw_ghouls_1
                            has_province_modifier = aw_ghouls_2
                        }
                    }
                    modifier = {
                        factor = 0  #terrains it CANNOT spawn in
                        has_underground_terrain = yes
                    }
                    modifier = {
                        factor = 0  #terrains it CANNOT spawn in
                        NOT = { continent = europe }    #for now, ghouls are a cannorian affair
                    }

                    #Factors
                    modifier = {    #more likely places for it to spawn
                        factor = 1.5
                        OR = {
                            region = south_castanor_region
                            region = inner_castanor_region
                            region = west_castanor_region
                            region = alenic_frontier_region
                        }
                    }
                    modifier = {    #even spookier places my friend
                    factor = 2
                        OR = {
                            region = forlorn_vale_region
                            region = dostanor_region
                            region = the_borders_region
                        }
                    }
                    modifier = {
                        factor = 0.75
                        has_estate_privilege = estate_church_protected_burials
                    }
                    modifier = {
                        factor = 0.5
                        NOT = { devastation = 50 }
                    }
                    province_event = { id = aw_ghouls.0 }
                }

                #Wyverns
                1 = {
                    #Preventers
                    modifier = {
                        factor = 0
                        OR = {
                            has_province_modifier = aw_wyvern_1
                            has_province_modifier = aw_wyvern_2
                        }
                    }
                    modifier = {
                        factor = 0  #terrains it CANNOT spawn in
                        has_underground_terrain = yes
                    }
                    modifier = {
                        factor = 0  #terrains it CANNOT spawn in
                        NOT = { continent = europe }
                    }

                    #Factors
                    modifier = {    #more likely places for it to spawn
                        factor = 2
                        OR = {
                            region = businor_region
                            region = inner_castanor_region
                        }
                    }
                    modifier = {    
                        factor = 1.5
                        OR = {
                            has_terrain = mountain
                            has_terrain = woods
                            has_terrain = forest
                            has_terrain = hills
                        }
                    }

                    province_event = { id = aw_wyvern.0 }
                }

                #Satyrs
                2 = {
                    #Preventers
                    modifier = {
                        factor = 0
                        OR = {
                            has_province_modifier = aw_satyrs_1
                            has_province_modifier = aw_satyrs_2
                            has_province_modifier = aw_satyrs_3
                        }
                    }
                    modifier = {
                        factor = 0
                        NOT = { continent = europe }
                    }
                    modifier = {
                        factor = 0  #terrains it CANNOT spawn in
                        NOT = { has_terrain = forest }
                        NOT = { has_terrain = woods }
                        NOT = { has_terrain = farmlands }
                    }

                    #Factors
                    modifier = {    #more likely places for it to spawn
                        factor = 2
                        OR = {
                            region = alenic_frontier_region
                            superregion = escann_superregion
                        }
                    }
                    modifier = {
                        factor = 2
                        OR = {
                            region = south_castanor_region
                            superregion = deepwoods_superregion
                        }
                    }

                    province_event = { id = aw_satyrs.0 }
                }

                #Wendigo
                10 = {  #high as a lot are duds
                    #Preventers
                    modifier = {
                        factor = 0
                        OR = {
                            has_province_modifier = aw_wendigo_1
                            has_province_modifier = aw_wendigo_2
                            has_province_modifier = aw_wendigo_3
                        }
                    }
                    modifier = {
                        factor = 0
                        NOT = { region = forest_of_the_cursed_ones_region }
                        NOT = { region = rzenta_region }
                        NOT = { region = dolindha_region }
                    }

                    #Factors
                    modifier = {
                        factor = 2  #terrains it spawn in
                        has_terrain = forest
                        has_terrain = woods
                    }
                    modifier = {
                        factor = 2  #lets make things worse, huh
                        NOT = { stability = 1 }
                    }

                    province_event = { id = aw_wendigo.0 }
                }

                #Zombies
                1 = {
                    #Preventers
                    modifier = {
                        factor = 0
                        OR = {
                            has_province_modifier = aw_zombies_1
                            has_province_modifier = aw_zombies_2
                            has_province_modifier = aw_zombies_3
                        }
                    }
                    modifier = {
                        factor = 0  #terrains it CANNOT spawn in
                        NOT = { continent = europe }   #for now, zombies are a cannorian affair
                    }
                    modifier = {
                        factor = 0  #terrains it CANNOT spawn in
                        has_underground_terrain = yes
                    }

                    #Factors
                    modifier = {
                    factor = 2
                        owner = { has_country_modifier = undead_military }
                    }
                    modifier = {    #more likely places for it to spawn
                        factor = 1.5
                        OR = {
                            region = south_castanor_region
                            region = inner_castanor_region
                            region = west_castanor_region
                        }
                    }
                    modifier = {    #even spookier places my friend
                    factor = 2
                        OR = {
                            region = forlorn_vale_region
                            region = dostanor_region
                            region = the_borders_region
                        }
                    }
                    modifier = {    #elves are somewhat immune
                        factor = 0.33
                        has_elven_majority_trigger = yes
                    }
                    

                    province_event = { id = aw_zombies.0 }
                }

                #Vampires
                1 = {
                    #Preventers
                    modifier = {
                        factor = 0
                        OR = {
                            has_province_modifier = aw_vampires_1
                            has_province_modifier = aw_vampires_2
                            has_province_modifier = aw_vampires_3
                        }
                    }
                    modifier = {
                        factor = 0  #terrains it CANNOT spawn in
                        NOT = { continent = europe }
                    }
                    modifier = {    #for now, only humans can be vampires
                        factor = 0
                        NOT = { culture_is_human = yes }
                    }

                    #Factors
                    modifier = {
                    factor = 1.5
                        OR = {
                            region = dostanor_region
                            region = the_borders_region
                        }
                    }
                    modifier = {
                        factor = 3
                        owner = { has_estate = estate_vampires }
                    }
                    modifier = {    #has disloyal estate that follows the masquerade
                        factor = 2
                        owner = { has_estate = estate_vampires }
                        owner = { vampire_estate_follows_masquerade_privilege = yes }
                        owner = {   #disloyal
                            NOT = {
                                estate_loyalty = {
                                    estate = estate_vampires
                                    loyalty = 30
                                }
                            }
                        }
                    }
                    province_event = { id = aw_vampires.0 }
                }
                #Orcs
                3 = {
                    #Preventers
                    modifier = {
                        factor = 0
                        OR = {
                            has_province_modifier = aw_orcs_1
                            has_province_modifier = aw_orcs_2
                            has_province_modifier = aw_orcs_3

                            has_any_orcish_pop_trigger = yes
                        }
                    }
                    modifier = {
                        factor = 0
                        AND = {
                            NOT = {
                                OR = {
                                    continent = north_america  #no orcs in aelantir
                                    continent = south_america  #no orcs in aelantir
                                
                                }
                            }
                            NOT = { is_year = 1580 }
                        }
                    }
                    modifier = {
                        factor = 0
                        NOT = { continent = africa } #no orcs in Sarhal, ever
                    }
                   modifier = {    #Same race as country preventers
                       factor = 0 
                       owner = { ruler_is_orcish = yes }
                   }
                   modifier = {
                       factor = 0 
                       owner = { has_orcish_accepted_culture = yes }
                   }
                   modifier = {
                       factor = 0 
                       owner = { medium_tolerance_orcish_race_trigger = yes }
                   }
                    #Factors
                    modifier = {
                        factor = 5
                        OR = {
                            superregion = escann_superregion  #due to greentide
                            superregion = deepwoods_superregion  #due to greentide
                            continent = serpentspine  #racial homeland
                        }
                    }
                    modifier = {
                        factor = 2
                        OR = {
                            superregion = rahen_superregion #due to serpentspine proximity
                            superregion = bulwar_superregion  #due to serpentspine proximity
                            superregion = forbidden_lands_superregion  #due to serpentspine proximity
                        }
                    }
                    
                    province_event = { id = aw_orcs.0 }
                }
                #Hags
                1 = {
                    #Preventers
                    modifier = {
                        factor = 0
                        OR = {
                            has_province_modifier = aw_hags_1
                            has_province_modifier = aw_hags_2
                            has_province_modifier = aw_hags_3
                        }
                    }
                    modifier = {
                        factor = 0  #terrains it CANNOT spawn in
                        OR = {
                            has_underground_terrain = yes
                            has_terrain = city_terrain
                        }
                    }

                    #Factors
                    modifier = {    #more likely places for it to spawn
                        factor = 1.5
                        OR = {
                            region = alenic_frontier_region
                            superregion = escann_superregion
                        }
                    }
                    modifier = {    #even spookier places my friend
                    factor = 2
                        OR = {
                            region = forlorn_vale_region
                            region = dostanor_region
                            region = the_borders_region
                        }
                    }
                    modifier = {
                        factor = 2
                        OR = {
                            region = south_castanor_region
                            superregion = deepwoods_superregion
                        }
                    }
                    

                    province_event = { id = aw_hags.0 }
                }

                #Eldritch Cultists
                2 = {
                    #Preventers
                    modifier = {
                        factor = 0
                        OR = {
                            has_province_modifier = aw_eldritch_cultists_1
                            has_province_modifier = aw_eldritch_cultists_2
                            has_province_modifier = aw_eldritch_cultists_3
                        }
                    }

                    #Factors
                    modifier = {
                        factor = 5
                        region = trollsbay_region
                    }

                    province_event = { id = aw_eldritch_cultists.0 }
                }
            }
        }   
    }
}

