namespace = aw_werewolves

#The Adventurers Wanted uses a strict ID system to make the system easier to author content for
#The IDs below 100 are core utility systems that are usually straight copies or modifications of how the AW system works, such as monsters being able to migrate and be defeated by adventurers.
#The IDs above 100 are more unique situations for the specific encounter, but they should correlate with the numbers from above: if ID 10s deal with migration, then ID 110s should be the unique events to do with migration - for example bribing a Thieves Guild to GTFO your country
#Crazy and more uniques ones that dont conform to the utilities should be ID 200

#USE THE anb_aw_werewolves TO SEE A SIMPLE COPY-PASTABLE FORMAT IN ADDITION TO STUFF LIKE MIGRATION STYLES ETC
#Search for CHANGEABLE for the criteria you should change in that file and this one

#################################################################
# Welcome to the master file for the Adventurers Wanted System. In the comments below you'll see copy-pastable events for you to choose, different migration styles as well as prebuilt events to handle stuff like spawning rebellions
#################################################################

#0 - spawn in province
province_event = {
    id = aw_werewolves.0
    title = aw_werewolves.0.t
    desc = aw_werewolves.0.d
    picture = COMET_SIGHTED_eventPicture
    goto = ROOT
    
    is_triggered_only = yes
    #hidden = yes
    
    #yup thats happening
    option = {
        name = aw_basic.0.a
        ai_chance = { 
            factor = 1 
        }
        add_permanent_province_modifier  = {
            name = aw_werewolves_1
            duration = -1  
        }

        custom_tooltip = aw_how_to_get_more_adventurer_removal_chance_tooltip
    }
}


#1 - event manager, called by on_actions. This happens ONCE per pulse. If you have 7 of these, it still only fires the manager once
country_event = {
    id = aw_werewolves.1
    title = aw_werewolves.1.t
    desc = aw_werewolves.1.d
    picture = COMET_SIGHTED_eventPicture
    
    hidden = yes
    is_triggered_only = yes
    
    trigger = {
        any_owned_province = {
            OR = { 
                has_province_modifier = aw_werewolves_1
                has_province_modifier = aw_werewolves_2
                has_province_modifier = aw_werewolves_3
            }
        }
    }

    mean_time_to_happen = {
        days = 1
        modifier = {
            factor = 2
            num_of_owned_provinces_with = {
                value = 3
                OR = { 
                    has_province_modifier = aw_werewolves_1
                    has_province_modifier = aw_werewolves_2
                    has_province_modifier = aw_werewolves_3
                }
            }
        }
    }

    immediate = {
        random_owned_province = {
            limit = {
                OR = { 
                    has_province_modifier = aw_werewolves_1
                    has_province_modifier = aw_werewolves_2
                    has_province_modifier = aw_werewolves_3
                }
            }
            save_event_target_as = aw_werewolves_target
        }
    }
    
	
	option = {
        event_target:aw_werewolves_target = {
            random_list = {
                10 = {  #this is usually 5, but this is for lycanthrophe INFESTATION so its higher
                    province_event = { id = aw_werewolves.13 }    #Base propagation
                }
                7 = {
                    province_event = { id = aw_werewolves.20 }    #Natural removal
                }
                10 = {  #used to be 7 but this is higher challenge so moved to 5
                    #Base modifiers

                    #more likely if generous quest rewards/adverturer nation
                    modifier = {
                        factor = 2
                        OR = {
                            owner = { has_estate_privilege = estate_adventurers_generous_quest_rewards }
                            owner = { has_adventurer_reform = yes }
                        }
                    }

                    #more likely if loyal
                    modifier = {
                        factor = 2
                        owner = {
                            estate_loyalty = {
                                estate = estate_adventurers
                                loyalty = 60
                            }
                        }
                    }

                    #more likely if high influence
                    modifier = {
                        factor = 2
                        owner = {
                            estate_influence = {
                                estate = estate_adventurers
                                influence = 60
                            }
                        }
                    }
                    #small influence boost at 30
                    modifier = {
                        factor = 1.5
                        owner = {
                            estate_influence = {
                                estate = estate_adventurers
                                influence = 30
                            }
                        }
                    }
                    #adventurer type sponsorships
                    modifier = {
                        factor = 2
                        owner = {
                            has_estate_privilege = estate_adventurers_sponsor_monster_hunters
                        }
                    }
                    modifier = {
                        factor = 1.5
                        owner = {
                            has_estate_privilege = estate_adventurers_sponsor_beast_slayers
                        }
                    }
                    province_event = { id = aw_werewolves.21 }    #Adventurer Removal
                }
                15 = {  #used to be 10 but this is higher challenge so moved to 7
                    #Base modifiers

                    #more likely if generous quest rewards/adverturer nation
                    modifier = {
                        factor = 2
                        OR = {
                            owner = { has_estate_privilege = estate_adventurers_generous_quest_rewards }
                            owner = { has_adventurer_reform = yes }
                        }
                    }

                    #more likely if loyal
                    modifier = {
                        factor = 2
                        owner = {
                            estate_loyalty = {
                                estate = estate_adventurers
                                loyalty = 60
                            }
                        }
                    }

                    #more likely if high influence
                    modifier = {
                        factor = 2
                        owner = {
                            estate_influence = {
                                estate = estate_adventurers
                                influence = 60
                            }
                        }
                    }
                    #small influence boost at 30
                    modifier = {
                        factor = 1.5
                        owner = {
                            estate_influence = {
                                estate = estate_adventurers
                                influence = 30
                            }
                        }
                    }
                    #adventurer type sponsorships
                    modifier = {
                        factor = 2
                        owner = {
                            has_estate_privilege = estate_adventurers_sponsor_monster_hunters
                        }
                    }
                    modifier = {
                        factor = 1.5
                        owner = {
                            has_estate_privilege = estate_adventurers_sponsor_beast_slayers
                        }
                    }
                    province_event = { id = aw_werewolves.23 }    #Adventurer tier down
                }
                25 = {
                    modifier = {
                        #only want this to ever be part of the equation if you are monstrous
                        factor = 0
                        NOT = { owner = { has_country_modifier = monstrous_nation } }
                    }
                    province_event = { id = aw_werewolves.25 }    #Monster tier down. Actually not as high for monsters, its usually like 50
                }
                10 = { 
                    province_event = { id = aw_werewolves.30 }    #Natural tier up
                }

                #120 - alenic woodsmen kill if you have high prestige aka you're cool
                10 = { 
                    province_event = { id = aw_werewolves.120 } 
                }

                #120 - adventurers trap werewolf in village plan. ye or no
                7 = { 
                    #Base modifiers

                    #more likely if generous quest rewards/adverturer nation
                    modifier = {
                        factor = 2
                        OR = {
                            owner = { has_estate_privilege = estate_adventurers_generous_quest_rewards }
                            owner = { has_adventurer_reform = yes }
                        }
                    }

                    #more likely if loyal
                    modifier = {
                        factor = 2
                        owner = {
                            estate_loyalty = {
                                estate = estate_adventurers
                                loyalty = 60
                            }
                        }
                    }

                    #more likely if high influence
                    modifier = {
                        factor = 2
                        owner = {
                            estate_influence = {
                                estate = estate_adventurers
                                influence = 60
                            }
                        }
                    }
                    #adventurer type sponsorships
                    modifier = {
                        factor = 2
                        owner = {
                            has_estate_privilege = estate_adventurers_sponsor_beast_slayers
                        }
                    }
                    province_event = { id = aw_werewolves.121 } 
                }

                #122 - wolfspurge
                5 = {
                    modifier = {
                        factor = 2
                        owner = { stability = -3 }
                    }
                    modifier = {
                        factor = 2
                        owner = { stability = -2 }
                    }
                    owner = { country_event = { id = aw_werewolves.122 } }
                }

                #200 - silverware shortage due to hysteria
                5 = {
                    modifier = {
                        factor = 0
                        owner = { inflation = 75 }
                    }
                    modifier = {
                        factor = 2
                        owner = { stability = -3 }
                    }
                    modifier = {
                        factor = 3
                        num_of_owned_provinces_with = {
                            value = 10
                            has_province_modifier = aw_werewolves_3
                        }
                    }
                    owner = { country_event = { id = aw_werewolves.200 } }
                }

                #201 - advisor accused of being a furry
                10 = { 
                    owner = { country_event = { id = aw_werewolves.201 } }
                }

                #202 - people fleeing werewolf province
                7 = { 
                    province_event = { id = aw_werewolves.202 } 
                }

                #203 - werewolves against industry. a little nod to white wolf gaia
                3 = { 
                    modifier = {
                        factor = 2
                        development = 20
                        owner = { has_institution = manufactories }
                    }
                    province_event = { id = aw_werewolves.202 } 
                }

                #204 - mages want to do wild shit to study werewolves but woodsmen say no
                3 = {
                    modifier = {
                        factor = 2
                        owner = {
                            estate_influence = {
                                estate = estate_mages
                                influence = 30
                            }
                        }
                    }
                    province_event = { id = aw_werewolves.203 } 
                }

                #205 - rival wolf tribes fight
                5 = { 
                    province_event = { id = aw_werewolves.205 } 
                }

                #206 - werewolf hysteria, people accuse each other
                10 = { 
                    province_event = { id = aw_werewolves.206 } 
                }

                #207 - brutal massacre. -1 stability for country my friend
                5 = {
                    modifier = {
                        factor = 2
                        owner = { stability = 3 }
                    }
                    province_event = { id = aw_werewolves.207 } 
                }

                #208 - brutal massacre. -1 stability for country my friend. red riding hood variant
                3 = { 
                    modifier = {
                        factor = 2
                        owner = { stability = 3 }
                    }
                    province_event = { id = aw_werewolves.208 } 
                }

                #209 - Vampires vs Werewolves, Werewolves win
                1 = { 
                    modifier = {
                        factor = 50
                        OR = {
                            has_province_modifier = aw_vampires_1
                            has_province_modifier = aw_vampires_2
                            has_province_modifier = aw_vampires_3
                        }
                    }
                    province_event = { id = aw_werewolves.208 } 
                }
            }
        }
	}
    
}


#2 - notification of advanturers wanted spawning

############## 10s - Migration and Propagation ###################

#10 - Base migration - nah

#11 - migration target notification if it goes to other country - nah

#13 - Base propagation - only for level 3. higher chance than usual. any adjacent
province_event = {
    id = aw_werewolves.13
    title = aw_werewolves.13.t
    desc = aw_werewolves.13.d
    picture = COMET_SIGHTED_eventPicture
    goto = ROOT
    
    hidden = no
    is_triggered_only = yes
    
    trigger = {
        has_province_modifier = aw_werewolves_3
    }
    
    immediate = {
        hidden_effect = {

            #CHANGEABLE - MIGRATION TYPE - Any adjacent province
            random_neighbor_province = {
                limit = {
                    #Base Conditions
                    is_city = yes

                    NOT = { has_province_modifier = aw_werewolves_1 }
                    NOT = { has_province_modifier = aw_werewolves_2 }
                    NOT = { has_province_modifier = aw_werewolves_3 }


                    #Specific Conditions
                   
                }
                save_event_target_as = aw_werewolves_migration_target
            }

        }
    }

    #If migration is within country
    option = {  
        name = aw_werewolves.13.a
        ai_chance = { factor = 100 }
        goto = aw_werewolves_migration_target
        trigger = {
            event_target:aw_werewolves_migration_target = {
                owned_by = ROOT
            }
        }


        event_target:aw_werewolves_migration_target = {
            if = {
                limit = {
                    owned_by = ROOT
                }

                #CHANGEABLE - SPREAD TYPE: creates fixed level 1
                add_permanent_province_modifier = { 
                    name = aw_werewolves_2
                    duration = -1
                }
            }
        }
    }

    #If migration is sent to OTHER country
    option = {  
        name = aw_werewolves.13.b
        ai_chance = { factor = 100 }
        goto = aw_werewolves_migration_target
        trigger = {
            event_target:aw_werewolves_migration_target = {
                NOT = { owned_by = ROOT }   #if the target isnt in your country, then send an event to them that notifies + adds it on their end
            }
        }

        custom_tooltip = aw_werewolves_migrate_to_other_country_tt
		hidden_effect = {
			event_target:aw_werewolves_migration_target = {
				province_event = {
					id = aw_werewolves.14
					days = 14
					#random = 31
				}
			}
		}
    }
}

#14 - propagation target notification
province_event = {
    id = aw_werewolves.14
    title = aw_werewolves.14.t
    desc = aw_werewolves.14.d
    picture = COMET_SIGHTED_eventPicture
    goto = ROOT
    
    hidden = no
    is_triggered_only = yes
    
    option = {
        # deal with it ourselves
        name = aw_basic.0.a
        ai_chance = { 
            factor = 20 
        }

        custom_tooltip = aw_how_to_get_more_adventurer_removal_chance_tooltip

        owner = {
            add_opinion = {
                who = FROM
                modifier = aw_crossed_border
            }
        }

        #CHANGEABLE - SPREAD TYPE: creates fixed level 2
        add_permanent_province_modifier = { 
            name = aw_werewolves_2
            duration = -1
        }

    }

}

############## 20s - Removal/Tier Down ###################

#20 - natural removal. a prominent clan or tribe of people disappear (not level 3)
province_event = {
    id = aw_werewolves.20
    title = aw_werewolves.20.t
    desc = aw_werewolves.20.d
    picture = COMET_SIGHTED_eventPicture
    goto = ROOT
    
    hidden = no
    is_triggered_only = yes
    
    trigger = {
        OR = {
            has_province_modifier = aw_werewolves_1
            has_province_modifier = aw_werewolves_2
        }

        base_manpower = 2
    }
    
    option = {
 
        name = aw_werewolves.20.a
        ai_chance = { factor = 100 }

        remove_province_modifier = aw_werewolves_1
        remove_province_modifier = aw_werewolves_2
        remove_province_modifier = aw_werewolves_3

        random = {
            chance = 25
            add_base_manpower = -1
        }

    }
}

#21 - adventurer removal
province_event = {
    id = aw_werewolves.21
    title = aw_werewolves.21.t
    desc = aw_werewolves.21.d
    picture = COMET_SIGHTED_eventPicture
    goto = ROOT
    
    hidden = no
    is_triggered_only = yes
    
    trigger = {
        owner = { has_estate = estate_adventurers }
        OR = {
            has_province_modifier = aw_werewolves_2
            has_province_modifier = aw_werewolves_3
        }
    }
    
    option = {
        # oh, thank goodness
        name = aw_werewolves.21.a
        ai_chance = { factor = 100 }

        remove_province_modifier = aw_werewolves_1
        remove_province_modifier = aw_werewolves_2
        remove_province_modifier = aw_werewolves_3

        owner = {
            add_estate_influence_modifier = {
                estate = estate_adventurers
                desc = EST_VAL_AW_RESOLVED_ADVENTURERS_WANTED_ENCOUNTER
                duration = 3650
                influence = 5
            }
        }

        owner = { add_prestige_excess_to_splendour_effect = { VAL=5} }

    }
}

#23 - adventurer tier down
province_event = {
    id = aw_werewolves.23
    title = aw_werewolves.23.t
    desc = aw_werewolves.23.d
    picture = COMET_SIGHTED_eventPicture
    goto = ROOT
    
    hidden = no
    is_triggered_only = yes
    
    trigger = {
        owner = { has_estate = estate_adventurers }
        OR = { 
            has_province_modifier = aw_werewolves_1 
            has_province_modifier = aw_werewolves_2
            has_province_modifier = aw_werewolves_3
        }
    }
    option = {
        name = aw_werewolves.23.a
        ai_chance = { factor = 100 }
        if = {
            limit = { 
                has_province_modifier = aw_werewolves_3 
            }
            remove_province_modifier = aw_werewolves_3
            add_permanent_province_modifier  = {
                name = aw_werewolves_2
                duration = -1  
            }
        }
        else_if = {
            limit = { 
                has_province_modifier = aw_werewolves_2
            }
            remove_province_modifier = aw_werewolves_2
            add_permanent_province_modifier  = {
                name = aw_werewolves_1
                duration = -1  
            }
        }
        else_if = {
            limit = { 
                has_province_modifier = aw_werewolves_1
            }
            remove_province_modifier = aw_werewolves_1
            owner = { add_prestige_excess_to_splendour_effect = { VAL=5} }
        }

        owner = {
            add_estate_influence_modifier = {
                estate = estate_adventurers
                desc = EST_VAL_AW_RESOLVED_ADVENTURERS_WANTED_ENCOUNTER
                duration = 3650
                influence = 5
            }
        }
    }
}


#25 - monster natural tier down. keep if you want, or just rely on removal
province_event = {
    id = aw_werewolves.25
    title = aw_werewolves.25.t
    desc = aw_werewolves.25.d
    picture = COMET_SIGHTED_eventPicture
    goto = ROOT
    
    hidden = no
    is_triggered_only = yes
    
    trigger = {
        owner = { has_country_modifier = monstrous_nation }

        OR = { 
            has_province_modifier = aw_werewolves_1 
            has_province_modifier = aw_werewolves_2
            has_province_modifier = aw_werewolves_3
        }
    }
    option = {
        name = aw_werewolves.25.a
        ai_chance = { factor = 100 }
        if = {
            limit = { 
                has_province_modifier = aw_werewolves_3 
            }
            remove_province_modifier = aw_werewolves_3
            add_permanent_province_modifier  = {
                name = aw_werewolves_2
                duration = -1  
            }
        }
        else_if = {
            limit = { 
                has_province_modifier = aw_werewolves_2
            }
            remove_province_modifier = aw_werewolves_2
            add_permanent_province_modifier  = {
                name = aw_werewolves_1
                duration = -1  
            }
        }
        else_if = {
            limit = { 
                has_province_modifier = aw_werewolves_1
            }
            remove_province_modifier = aw_werewolves_1
            owner = { add_prestige_excess_to_splendour_effect = { VAL=5} }
        }
    }
}

############## 30s - Tier Up ###################

#30 - natural tier up
province_event = {
    id = aw_werewolves.30
    title = aw_werewolves.30.t
    desc = aw_werewolves.30.d
    picture = COMET_SIGHTED_eventPicture
    goto = ROOT
    
    hidden = no
    is_triggered_only = yes
    
    trigger = {
        OR = { 
            has_province_modifier = aw_werewolves_1 
            has_province_modifier = aw_werewolves_2
        }
    }
    option = {
        name = aw_werewolves.30.a
        ai_chance = { factor = 100 }
        if = {
            limit = { 
                has_province_modifier = aw_werewolves_1
            }
            remove_province_modifier = aw_werewolves_1
            add_permanent_province_modifier  = {
                name = aw_werewolves_2
                duration = -1  
            }
        }
        else_if = {
            limit = { 
                has_province_modifier = aw_werewolves_2
            }
            remove_province_modifier = aw_werewolves_2
            add_permanent_province_modifier  = {
                name = aw_werewolves_3
                duration = -1  
            }
        }

        custom_tooltip = aw_how_to_get_more_adventurer_removal_chance_tooltip   #should be added for each increase of level
    }
}

############## 110s - Special Migration & Propagation ###################



############## 120s - Special Removal/Tier Down ###################

#120 - alenic woodsmen kill if you have high prestige aka you're cool
province_event = {
    id = aw_werewolves.120
    title = aw_werewolves.120.t
    desc = aw_werewolves.120.d
    picture = TRADE_GOODS_FURS_FISH_AND_SALT_eventPicture
    goto = ROOT
    
    hidden = no
    is_triggered_only = yes
    
    trigger = {
        OR = {
            has_province_modifier = aw_werewolves_1
            has_province_modifier = aw_werewolves_2
            has_province_modifier = aw_werewolves_3
        }

        province_group = greatwoods_province_group

        owner = { prestige = 75 }
    }
    option = {
        name = aw_werewolves.120.a
        ai_chance = { factor = 100 }

        remove_province_modifier = aw_werewolves_1
        remove_province_modifier = aw_werewolves_2
        remove_province_modifier = aw_werewolves_3

    }

    option = {
        name = aw_werewolves.120.b
        ai_chance = { factor = 100 }

        owner = { add_mil_power = 30 }

    }
}

#121 - adventurers trap werewolf in village plan. ye or no
province_event = {
    id = aw_werewolves.121
    title = aw_werewolves.121.t
    desc = aw_werewolves.121.d
    picture = PEASANTS_BARTERING_eventPicture
    goto = ROOT
    
    hidden = no
    is_triggered_only = yes
    
    trigger = {
        OR = {
            has_province_modifier = aw_werewolves_2
            has_province_modifier = aw_werewolves_3
        }

        NOT = { devastation = 50 }

        owner = {
            NOT = {
                has_estate_loyalty_modifier = {
                    estate = estate_adventurers
                    modifier = EST_VAL_AW_REJECTED_CRAZY_IDEAS
                }
            }
        }
    }
    option = {
        name = aw_werewolves.121.a
        ai_chance = { factor = 100 }

        add_devastation = 50

        if = {
            limit = { 
                has_province_modifier = aw_werewolves_1
            }
            remove_province_modifier = aw_werewolves_1
        }
        else_if = {
            limit = { 
                has_province_modifier = aw_werewolves_2
            }
            remove_province_modifier = aw_werewolves_2
        }
        else_if = {
            limit = { 
                has_province_modifier = aw_werewolves_3
            }
            remove_province_modifier = aw_werewolves_3
        }

    }

    option = {
        name = aw_werewolves.121.b
        ai_chance = { factor = 100 }

        owner = {
            add_estate_loyalty_modifier = {
                estate = estate_adventurers
                desc = EST_VAL_AW_REJECTED_CRAZY_IDEAS
                loyalty = -10
                duration = 3650
            }
        }

        owner = { add_prestige = 3 }

    }
}

#122 - wolfspurge. devastation for removal. we have some events that push you to low stability, 
country_event = {
    id = aw_werewolves.122
    title = aw_werewolves.122.t
    desc = aw_werewolves.122.d
    picture = ANGRY_MOB_eventPicture
    #goto = ROOT
    
    hidden = no
    is_triggered_only = yes
    
    trigger = {
        NOT = { stability = 1 }

        num_of_owned_provinces_with = {
            value = 20
            OR = {
                has_province_modifier = aw_werewolves_1
                has_province_modifier = aw_werewolves_2
                has_province_modifier = aw_werewolves_3
            }
        }
    }

    option = {
        name = aw_werewolves.122.a
        ai_chance = { factor = 100 }

        every_owned_province = { 
            limit = {
                OR = {
                    has_province_modifier = aw_werewolves_1
                    has_province_modifier = aw_werewolves_2
                    has_province_modifier = aw_werewolves_3
                }
            }
            add_base_manpower = -1
            add_devastation = 75

            remove_province_modifier = aw_werewolves_1
            remove_province_modifier = aw_werewolves_2
            remove_province_modifier = aw_werewolves_3
        }

    }

    option = {
        name = aw_werewolves.122.b
        ai_chance = { factor = 50 }
        trigger = {
            stability = -2
        }

        add_stability = -1

    }

}

############## 130s - Special Tier Up ###################



############## 200s - Special Flavour ###################

#200 - silverware shortage due to hysteria
country_event = {
    id = aw_werewolves.200
    title = aw_werewolves.200.t
    desc = aw_werewolves.200.d
    picture = IMPORTANT_STATUE_eventPicture
    #goto = ROOT
    
    hidden = no
    is_triggered_only = yes
    
    trigger = {
        NOT = { stability = 1 }

        num_of_owned_provinces_with = {
            value = 5
            has_province_modifier = aw_werewolves_3
        }
    }

    option = {
        name = aw_werewolves.200.a
        ai_chance = { factor = 100 }

        add_inflation = 50

    }

}

#201 - advisor accused of being a furry
country_event = {
    id = aw_werewolves.201
    title = aw_werewolves.201.t
    desc = aw_werewolves.201.d
    picture = ACCUSATION_eventPicture
    #goto = ROOT
    
    hidden = no
    is_triggered_only = yes
    
    trigger = {
        stability = 1

        has_advisor = yes
    }

    option = {
        name = aw_werewolves.201.a
        ai_chance = { factor = 100 }

        kill_advisor = random

    }

    option = {
        name = aw_werewolves.201.b
        ai_chance = { factor = 100 }

        add_stability = -1

    }

}

#202 - people fleeing werewolf province
province_event = {
    id = aw_werewolves.202
    title = aw_werewolves.202.t
    desc = aw_werewolves.202.d
    picture = EUROPEAN_REFUGEES_eventPicture
    goto = ROOT
    
    hidden = no
    is_triggered_only = yes
    
    trigger = {

        OR = {
            has_province_modifier = aw_werewolves_3
        }
    }

    option = {
        name = aw_werewolves.202.a
        ai_chance = { factor = 100 }

        random_list = {
            33 = {
                add_base_tax = -1
            }
            33 = {
                add_base_production = -1
            }
            33 = {
                add_base_manpower = -1
            }
        }

    }

}

#203 - werewolves against industry. a little nod to white wolf gaia
province_event = {
    id = aw_werewolves.203
    title = aw_werewolves.203.t
    desc = aw_werewolves.203.d
    picture = VILLAGE_BURNING_eventPicture
    goto = ROOT
    
    hidden = no
    is_triggered_only = yes
    
    trigger = {
        owner = {
            has_institution = manufactories
        }

        OR = {
            has_province_modifier = aw_werewolves_2
            has_province_modifier = aw_werewolves_3
        }

        NOT = { devastation = 50 }

        base_production = 20
    }

    option = {
        name = aw_werewolves.203.a
        ai_chance = { factor = 100 }

        add_devastation = 50

        add_base_production = -1


    }

}

#204 - mages want to do wild shit to study werewolves but woodsmen say no
province_event = {
    id = aw_werewolves.204
    title = aw_werewolves.204.t
    desc = aw_werewolves.204.d
    picture = ADVISOR_eventPicture
    goto = ROOT
    
    hidden = no
    is_triggered_only = yes
    
    trigger = {
        OR = {
            has_province_modifier = aw_werewolves_1
            has_province_modifier = aw_werewolves_2
            has_province_modifier = aw_werewolves_3
        }

        owner = { has_estate = estate_mages }

        owner = {
            NOT = {
                has_estate_loyalty_modifier = {
                    estate = estate_mages
                    modifier = EST_VAL_AW_MONSTER_EXPERIMENTATION_SUPPORTED
                }
            }
        }
    }
    option = {
        name = aw_werewolves.204.a
        ai_chance = { factor = 100 }

        owner = {
            add_years_of_income = 0.2
        }

        owner = {
            add_estate_loyalty_modifier = {
                estate = estate_mages
                desc = EST_VAL_AW_MONSTER_EXPERIMENTATION_SUPPORTED
                loyalty = 10
                duration = 3650
            }
        }
    }

    option = {
        name = aw_werewolves.204.b
        ai_chance = { factor = 100 }

        owner = { 
            add_mil_power = 30 
            add_prestige = 5
        }

    }
}

#205 - rival wolf tribes fight
province_event = {
    id = aw_werewolves.205
    title = aw_werewolves.205.t
    desc = aw_werewolves.205.d
    picture = SCOTTISH_MERCENARIES_eventPicture
    goto = ROOT
    
    hidden = no
    is_triggered_only = yes
    
    trigger = {
        OR = {
            has_province_modifier = aw_werewolves_2
            has_province_modifier = aw_werewolves_3
        }

        NOT = { devastation = 50 }
    }
    option = {
        name = aw_werewolves.205.a
        ai_chance = { factor = 100 }

        add_devastation = 50

        if = {
            limit = { 
                has_province_modifier = aw_werewolves_2
            }
            remove_province_modifier = aw_werewolves_2
            add_permanent_province_modifier  = {
                name = aw_werewolves_1
                duration = -1  
            }
        }
        else_if = {
            limit = { 
                has_province_modifier = aw_werewolves_3
            }
            remove_province_modifier = aw_werewolves_3
            add_permanent_province_modifier  = {
                name = aw_werewolves_2
                duration = -1  
            }
        }

    }
}

#206 - werewolf hysteria, people accuse each other
province_event = {
    id = aw_werewolves.206
    title = aw_werewolves.206.t
    desc = aw_werewolves.206.d
    picture = SIEGE_PRAGUE_CASTLE_eventPicture
    goto = ROOT
    
    hidden = no
    is_triggered_only = yes
    
    trigger = {
        OR = {
            has_province_modifier = aw_werewolves_2
            has_province_modifier = aw_werewolves_3
        }

        NOT = { has_province_modifier = aw_werewolves_werewolf_hysteria }
        NOT = { has_province_modifier = aw_werewolves_werewolf_hysteria_court_oversight }
    }
    option = {
        name = aw_werewolves.206.a
        ai_chance = { factor = 100 }

        add_permanent_province_modifier = { 
            name = aw_werewolves_werewolf_hysteria
            duration = 1825
        }
    }

    #try and precede over this courts to keep shenanigans low
    option = {
        name = aw_werewolves.206.b
        ai_chance = {
            factor = 100 
            modifier = {
                factor = 0
                NOT = { owner = { adm_power = 100 } }
            }
        }

        owner = { add_adm_power = -50 }

        add_permanent_province_modifier = { 
            name = aw_werewolves_werewolf_hysteria_court_oversight
            duration = 1825
        }
    }
}

#207 - brutal massacre. -1 stability for country my friend
province_event = {
    id = aw_werewolves.207
    title = aw_werewolves.207.t
    desc = aw_werewolves.207.d
    picture = PLAGUE_eventPicture
    goto = ROOT
    
    hidden = no
    is_triggered_only = yes
    
    trigger = {
        OR = { 
            has_province_modifier = aw_werewolves_2
            has_province_modifier = aw_werewolves_3
        }

        owner = {  stability = -2 }
    }
    option = {
        name = aw_werewolves.207.a
        ai_chance = { factor = 100 }

        owner = { add_stability = -1 }
    }
}

#208 - brutal massacre. -1 stability for country my friend. red riding hood variant
province_event = {
    id = aw_werewolves.208
    title = aw_werewolves.208.t
    desc = aw_werewolves.208.d
    picture = PLAGUE_eventPicture
    goto = ROOT
    
    hidden = no
    is_triggered_only = yes
    
    trigger = {
        OR = { 
            has_province_modifier = aw_werewolves_1
            has_province_modifier = aw_werewolves_2
            has_province_modifier = aw_werewolves_3
        }

        owner = {
            has_institution = manufactories
        }

        owner = { stability = -2 }
    }
    option = {
        name = aw_werewolves.208.a
        ai_chance = { factor = 100 }

        owner = { add_stability = -1 }
    }
}

#209 - Vampires vs Werewolves, Werewolves win
province_event = {
    id = aw_werewolves.209
    title = aw_werewolves.209.t
    desc = aw_werewolves.209.d
    picture = IMPALED_SOLDIERS_eventPicture
    goto = ROOT
    
    hidden = no
    is_triggered_only = yes
    
    trigger = {
        AND = {
            OR = {
                has_province_modifier = aw_vampires_1
                has_province_modifier = aw_vampires_2
                has_province_modifier = aw_vampires_3
            }

            OR = {
                has_province_modifier = aw_werewolves_1
                has_province_modifier = aw_werewolves_2
                has_province_modifier = aw_werewolves_3
            }
        }

        NOT = { devastation = 50 }
    }
    
    option = {
        name = aw_werewolves.209.a
        ai_chance = { factor = 100 }

        remove_province_modifier = aw_vampires_1
        remove_province_modifier = aw_vampires_2
        remove_province_modifier = aw_vampires_3

        add_devastation = 75

    }
}